TADA Module 1: Water Quality Portal Data Discovery and Cleaning • TADA
…
TADAProfile_CharSummary <- TADA_summarizeColumn(TADAProfile, "TADA.CharacteristicName")

TADAProfile_CharSummary
#> # A tibble: 112 × 3
#>    TADA.CharacteristicName n_sites n_records
#>    <chr>                     <int>     <int>
#>  1 .ALPHA.-ENDOSULFAN            6         7
#>  2 .BETA.-ENDOSULFAN             6         7
#>  3 ALDRIN                        6         7
#>  4 ALKALINITY, TOTAL           128       692
#>  5 ALPHA PARTICLE                6        14
#>  6 ALUMINUM                      6         7
#>  7 AMMONIA-NITROGEN             83       328
#>  8 AMMONIUM                     16        93
#>  9 APPARENT COLOR               39       106
#> 10 ARSENIC                      39        42
#> # ℹ 102 more rows
…
