TADA Module 1: Water Quality Portal Data Discovery and Cleaning • EPATADA
…
# Review the number of sites and number of records for each CharacteristicName in TADAProfile
TADAProfile_CharSummary <- TADA_SummarizeColumn(TADAProfile, "TADA.CharacteristicName")

# View TADAProfile_CharSummary
TADAProfile_CharSummary

## # A tibble: 37 × 3
##    TADA.CharacteristicName                 n_sites n_records
##    <chr>                                     <int>     <int>
##  1 ALKALINITY, TOTAL                            39       106
##  2 AMMONIA-NITROGEN                             39       104
##  3 APPARENT COLOR                               39       106
##  4 ARSENIC                                      31        31
##  5 CADMIUM                                      31        31
##  6 CHLORIDE                                     31        31
##  7 CHLOROPHYLL A                                21        49
##  8 CHROMIUM                                     31        31
##  9 CONDITION CLASS (DISSOLVED OXYGEN (DO))      20        97
## 10 COPPER                                       31        31
## # ℹ 27 more rows
…
